{
  "$schema": "https://on.cypress.io/cypress.schema.json",
  "baseUrl": "https://v2ter.sandbox.majelis.net/",
  "viewportHeight": 1080,
  "viewportWidth": 1920,
  "reporter": "cypress-mochawesome-reporter",
  "env": {
    "apiUrl": "https://api.sandbox.majelis.net/v2/api"
  },
  "watchForFileChanges": false,
  "testFiles": ["**/*.test.*"],
  "video": false,
  "requestTimeout": 10000,
  "projectId": "dzo1pa",
  "experimentalStudio": true,
  "experimentalSessionAndOrigin": true 
}
